[gd_scene load_steps=5 format=2]

[ext_resource path="res://game/entities/pulse.gd" type="Script" id=1]
[ext_resource path="res://game/assets/tiles_dungeon_v1.1.png" type="Texture" id=2]
[ext_resource path="res://game/components/pulse.tscn" type="PackedScene" id=3]
[ext_resource path="res://game/components/move_to.tscn" type="PackedScene" id=4]

[node name="Pulse" type="Node2D"]
script = ExtResource( 1 )

[node name="Sprite" type="Sprite" parent="."]
texture = ExtResource( 2 )
region_enabled = true
region_rect = Rect2( 272, 320, 16, 16 )

[node name="Components" type="Node" parent="."]

[node name="Pulse" parent="Components" instance=ExtResource( 3 )]

[node name="MoveTo" parent="Components" instance=ExtResource( 4 )]
SPEED = 2
SPEED_FACTOR = 5

