[gd_resource type="Resource" load_steps=2 format=2]

[ext_resource path="res://gs_windowscaler/window_view_resource.gd" type="Script" id=1]

[resource]
script = ExtResource( 1 )
name = "fullscreen"
width = 960
height = 540
fullscreen = true
default = true
